<svg xmlns="http://www.w3.org/2000/svg" width="14.731" height="19.642" viewBox="0 0 14.731 19.642">
  <defs>
    <style>
      .cls-1 {
        fill: #f77f1e;
      }
    </style>
  </defs>
  <path id="FooterAddress" class="cls-1" d="M10.366,0A7.4,7.4,0,0,0,3,7.419c0,5.813,6.673,11.815,6.957,12.067a.615.615,0,0,0,.817,0c.284-.253,6.957-6.255,6.957-12.068A7.4,7.4,0,0,0,10.366,0Zm0,11.458a4.092,4.092,0,1,1,4.092-4.092A4.1,4.1,0,0,1,10.366,11.458Z" transform="translate(-3)"/>
</svg>
