<svg id="FooterMessenger" xmlns="http://www.w3.org/2000/svg" width="23.71" height="23.71" viewBox="0 0 23.71 23.71">
  <defs>
    <style>
      .cls-1 {
        fill: #2e85ff;
      }

      .cls-2 {
        fill: #fff;
      }

      .cls-3 {
        fill: #006aff;
      }
    </style>
  </defs>
  <rect id="Rectangle_66" data-name="Rectangle 66" class="cls-1" width="23.71" height="23.71" rx="5" transform="translate(0 0)"/>
  <g id="Group_105" data-name="Group 105" transform="translate(4.871 4.878)">
    <path id="Path_134" data-name="Path 134" class="cls-2" d="M671.855,473.517a6.737,6.737,0,0,0-6.984,6.768,6.618,6.618,0,0,0,2.194,5.006.562.562,0,0,1,.188.4l.038,1.241a.56.56,0,0,0,.784.494l1.386-.611a.558.558,0,0,1,.372-.028,7.6,7.6,0,0,0,2.022.268,6.771,6.771,0,1,0,0-13.535Z" transform="translate(-664.871 -473.517)"/>
    <path id="Path_135" data-name="Path 135" class="cls-3" d="M684.946,511.933,687,508.682a1.049,1.049,0,0,1,1.515-.279l1.631,1.223a.42.42,0,0,0,.5,0l2.2-1.67a.331.331,0,0,1,.481.441l-2.05,3.25a1.049,1.049,0,0,1-1.515.279l-1.631-1.223a.42.42,0,0,0-.5,0l-2.2,1.672a.331.331,0,0,1-.481-.441Z" transform="translate(-682.155 -503.186)"/>
  </g>
</svg>
